D:\News\news-management-jpa\news-admin-jpa\src\main\java\com\epam\newsmanagement\controller\TagsController.java
D:\News\news-management-jpa\news-admin-jpa\src\main\java\com\epam\newsmanagement\service\UserDetailsServiceImpl.java
D:\News\news-management-jpa\news-admin-jpa\src\main\java\com\epam\newsmanagement\controller\AuthorsController.java
D:\News\news-management-jpa\news-admin-jpa\src\main\java\com\epam\newsmanagement\utils\RequestMappingNames.java
D:\News\news-management-jpa\news-admin-jpa\src\main\java\com\epam\newsmanagement\controller\LoginController.java
D:\News\news-management-jpa\news-admin-jpa\src\main\java\com\epam\newsmanagement\controller\NewsController.java
D:\News\news-management-jpa\news-admin-jpa\src\main\java\com\epam\newsmanagement\security\SecurityConfig.java
D:\News\news-management-jpa\news-admin-jpa\src\main\java\com\epam\newsmanagement\controller\CommentsController.java
D:\News\news-management-jpa\news-admin-jpa\src\main\java\com\epam\newsmanagement\utils\SearchCriteriaHelper.java
